Application of hygeo with hyRefactor • hygeo
…
out_path <- params$out_path
dir.create(out_path, recursive = TRUE, showWarnings = FALSE)

out_path <- write_hygeo(hygeo_list, out_path = out_path, overwrite = TRUE)
jsonlite::write_json(nhd_crosswalk, file.path(out_path, "crosswalk.json"), pretty = TRUE, auto_unbox = TRUE)

(hygeo_list_read <- read_hygeo(out_path))
#> $catchment
#> Simple feature collection with 90 features and 3 fields
#> geometry type:  MULTIPOLYGON
#> dimension:      XY
#> bbox:           xmin: -81.01073 ymin: 34.99056 xmax: -80.6473 ymax: 35.31445
#> geographic CRS: WGS 84
#> # A tibble: 90 x 4
#>    id     area_sqkm toid                                                geometry
#>    <chr>      <dbl> <chr>                                     <MULTIPOLYGON [°]>
#>  1 cat-52    18.1   nex-32 (((-80.92989 35.19063, -80.93001 35.19079, -80.93117~
#>  2 cat-1     11.2   nex-65 (((-80.95556 35.18335, -80.95659 35.18419, -80.95781~
#>  3 cat-18     5.17  nex-83 (((-80.78387 35.16191, -80.78403 35.16206, -80.78464~
#>  4 cat-44     2.21  nex-75 (((-80.76158 35.2144, -80.76273 35.21363, -80.76402 ~
#>  5 cat-8      0.438 nex-65 (((-80.93941 35.18507, -80.94011 35.18567, -80.93959~
#>  6 cat-17    11.2   nex-30 (((-80.89513 35.10984, -80.89523 35.1102, -80.89546 ~
#>  7 cat-34    12.1   nex-22 (((-80.86944 35.06659, -80.8701 35.06761, -80.87132 ~
#>  8 cat-19    15.4   nex-87 (((-80.8725 35.00046, -80.87429 35.00082, -80.87673 ~
#>  9 cat-27     1.82  nex-21 (((-80.89313 35.06234, -80.89585 35.064, -80.89817 3~
#> 10 cat-22     9.39  nex-87 (((-80.88475 35.02839, -80.88514 35.02875, -80.88587~
#> # ... with 80 more rows
#> 
#> $flowpath
#> Simple feature collection with 90 features and 6 fields
#> geometry type:  LINESTRING
#> dimension:      XY
#> bbox:           xmin: -80.9998 ymin: 35.00016 xmax: -80.66058 ymax: 35.30738
#> geographic CRS: WGS 84
#> # A tibble: 90 x 7
#>    id    length_km slope_percent main_id toid  realized_catchm~
#>    <chr>     <dbl>         <dbl>   <int> <chr> <chr>           
#>  1 fp-1      3.93        0.00518      58 fp-65 cat-1           
#>  2 fp-2     10.1         0.00610      74 fp-3  cat-2           
#>  3 fp-3      7.43        0.00154      16 fp-87 cat-3           
#>  4 fp-4      9.67        0.00115      16 fp-3  cat-4           
#>  5 fp-5      0.551       0.0132       49 fp-14 cat-5           
#>  6 fp-6      2.80        0.00696      28 fp-3  cat-6           
#>  7 fp-7      1.09        0.00239      45 fp-3  cat-7           
#>  8 fp-8      0.206       0.00001      84 fp-65 cat-8           
#>  9 fp-9      2.84        0.00001      53 fp-29 cat-9           
#> 10 fp-10     3.57        0.00653      75 fp-21 cat-10          
#> # ... with 80 more rows, and 1 more variable: geometry <LINESTRING [°]>
#> 
#> $nexus
#> Simple feature collection with 45 features and 2 fields
#> geometry type:  POINT
#> dimension:      XY
#> bbox:           xmin: -80.9777 ymin: 35.00016 xmax: -80.71308 ymax: 35.28691
#> geographic CRS: WGS 84
#> # A tibble: 45 x 3
#>    id     toid               geometry
#>    <chr>  <chr>           <POINT [°]>
#>  1 nex-65 cat-65 (-80.93949 35.18483)
#>  2 nex-3  cat-3  (-80.94817 35.06374)
#>  3 nex-87 cat-87 (-80.90946 35.01792)
#>  4 nex-14 cat-14  (-80.9777 35.04557)
#>  5 nex-29 cat-29 (-80.90107 35.08629)
#>  6 nex-21 cat-21 (-80.90722 35.06921)
#>  7 nex-4  cat-4  (-80.95742 35.09442)
#>  8 nex-69 cat-69  (-80.81283 35.0765)
#>  9 nex-77 cat-77 (-80.76566 35.24378)
#> 10 nex-30 cat-30 (-80.89567 35.10979)
#> # ... with 35 more rows
…
