Application of hygeo with hyRefactor
…
out_path <- params$out_path
dir.create(out_path, recursive = TRUE, showWarnings = FALSE)

out_path <- write_hygeo(hygeo_list, out_path = out_path, overwrite = TRUE)
jsonlite::write_json(nhd_crosswalk, file.path(out_path, "crosswalk.json"))

(hygeo_list_read <- read_hygeo(out_path))
#> $catchment
#> Simple feature collection with 120 features and 3 fields
#> geometry type:  MULTIPOLYGON
#> dimension:      XY
#> bbox:           xmin: -81.01073 ymin: 34.99056 xmax: -80.6473 ymax: 35.31445
#> geographic CRS: WGS 84
#> # A tibble: 120 x 4
#>    ID     area_sqkm toID                                                                               geometry
#>    <chr>      <dbl> <chr>                                                                    <MULTIPOLYGON []>
#>  1 cat-1     11.2   nex-97  (((-80.95556 35.18335, -80.95659 35.18419, -80.95781 35.18427, -80.95979 35.18685,
#>  2 cat-21     5.17  nex-116 (((-80.78387 35.16191, -80.78403 35.16206, -80.78464 35.16399, -80.78477 35.16583,
#>  3 cat-59    17.8   nex-87  (((-80.88393 35.1798, -80.88694 35.18344, -80.88931 35.18516, -80.89083 35.18653, 
#>  4 cat-46     2.21  nex-108 (((-80.76158 35.2144, -80.76273 35.21363, -80.76402 35.21371, -80.76547 35.21424, 
#>  5 cat-10     0.438 nex-97  (((-80.93941 35.18507, -80.94011 35.18567, -80.93959 35.18668, -80.93821 35.18851,
#>  6 cat-26     1.89  nex-25  (((-80.85014 35.06735, -80.85026 35.06751, -80.85132 35.06805, -80.85375 35.06781,
#>  7 cat-32     1.82  nex-31  (((-80.89313 35.06234, -80.89585 35.064, -80.89817 35.06336, -80.90084 35.06379, -
#>  8 cat-28     4.21  nex-26  (((-80.84075 35.074, -80.84092 35.07414, -80.84104 35.07501, -80.84189 35.07634, -
#>  9 cat-25     4.64  nex-78  (((-80.86342 35.0411, -80.86418 35.04159, -80.86467 35.04228, -80.86476 35.04373, 
#> 10 cat-48     2.01  nex-84  (((-80.8763 35.13863, -80.87703 35.13914, -80.87775 35.13951, -80.87832 35.14029, 
#> #  with 110 more rows
#> 
#> $flowpath
#> Simple feature collection with 120 features and 6 fields
#> geometry type:  LINESTRING
#> dimension:      XY
#> bbox:           xmin: -80.9998 ymin: 35.00016 xmax: -80.66058 ymax: 35.30738
#> geographic CRS: WGS 84
#> # A tibble: 120 x 7
#>    ID    length_km slope_percent main_id toID  realized_catchme                                       geometry
#>    <chr>     <dbl>         <dbl>   <int> <chr> <chr>                                           <LINESTRING []>
#>  1 fp-1      3.93       0.00518       74 fp-97 cat-1             (-80.94319 35.2114, -80.94509 35.21007, -80.9
#>  2 fp-2      8.10       0.00347       21 fp-73 cat-2             (-80.95713 35.16158, -80.9576 35.16167, -80.9
#>  3 fp-3      4.78       0.00154       21 fp-23 cat-3             (-80.93439 35.03665, -80.93383 35.03663, -80.
#>  4 fp-4      1.87       0.00124       21 fp-3  cat-4             (-80.94281 35.04645, -80.94272 35.0459, -80.9
#>  5 fp-5      1.64       0.00227       21 fp-4  cat-5             (-80.94572 35.05893, -80.94521 35.05852, -80.
#>  6 fp-6      3.41       0.000541      21 fp-5  cat-6             (-80.94911 35.08325, -80.94844 35.08245, -80.
#>  7 fp-7      0.551      0.0132        65 fp-18 cat-7             (-80.98336 35.04575, -80.97962 35.04477, -80.
#>  8 fp-8      2.80       0.00696       34 fp-3  cat-8             (-80.95878 35.03189, -80.95307 35.03439, -80.
#>  9 fp-9      1.09       0.00239       58 fp-3  cat-9             (-80.94193 35.0314, -80.94216 35.03225, -80.9
#> 10 fp-10     0.206      0.00001      110 fp-97 cat-10            (-80.93832 35.18628, -80.93927 35.18566, -80.
#> #  with 110 more rows
#> 
#> $nexus
#> Simple feature collection with 75 features and 2 fields
#> geometry type:  POINT
#> dimension:      XY
#> bbox:           xmin: -80.98676 ymin: 35.00016 xmax: -80.67403 ymax: 35.28691
#> geographic CRS: WGS 84
#> # A tibble: 75 x 3
#>    ID     toID               geometry
#>    <chr>  <chr>           <POINT []>
#>  1 nex-97 cat-97 (-80.93949 35.18483)
#>  2 nex-73 cat-73 (-80.95742 35.09442)
#>  3 nex-23 cat-23 (-80.90946 35.01792)
#>  4 nex-3  cat-3  (-80.93439 35.03665)
#>  5 nex-4  cat-4  (-80.94281 35.04645)
#>  6 nex-5  cat-5  (-80.94572 35.05893)
#>  7 nex-18 cat-18  (-80.9777 35.04557)
#>  8 nex-34 cat-34 (-80.90107 35.08629)
#>  9 nex-31 cat-31 (-80.90722 35.06921)
#> 10 nex-16 cat-16 (-80.98676 35.10958)
#> #  with 65 more rows
…
nhd_crosswalk
#> # A tibble: 160 x 2
#>    local_id COMID    
#>    <chr>    <chr>    
#>  1 cat-1    9731278  
#>  2 cat-2    9731320  
#>  3 cat-3    9731422  
#>  4 cat-4    9731394  
#>  5 cat-5    9731384  
#>  6 cat-6    9731370  
#>  7 cat-6    9731362.2
#>  8 cat-7    9731546  
#>  9 cat-7    9731388  
#> 10 cat-8    9731548  
#> #  with 150 more rows
…
