Application of hygeo with hyRefactor
…
out_path <- params$out_path
dir.create(out_path, recursive = TRUE, showWarnings = FALSE)

out_path <- write_hygeo(hygeo_list, out_path = out_path, overwrite = TRUE)
jsonlite::write_json(nhd_crosswalk, file.path(out_path, "crosswalk.json"))

(hygeo_list_read <- read_hygeo(out_path))
#> $catchment
#> Simple feature collection with 74 features and 3 fields
#> geometry type:  MULTIPOLYGON
#> dimension:      XY
#> bbox:           xmin: -81.01073 ymin: 34.99056 xmax: -80.6473 ymax: 35.31445
#> geographic CRS: WGS 84
#> # A tibble: 74 x 4
#>    ID     area_sqkm toID                                                                 geometry
#>    <chr>      <dbl> <chr>                                                      <MULTIPOLYGON []>
#>  1 cat-53    18.1   nex-33 (((-80.92989 35.19063, -80.93001 35.19079, -80.93117 35.19158, -80.93
#>  2 cat-1     11.2   nex-65 (((-80.95556 35.18335, -80.95659 35.18419, -80.95781 35.18427, -80.95
#>  3 cat-19     5.17  nex-72 (((-80.78387 35.16191, -80.78403 35.16206, -80.78464 35.16399, -80.78
#>  4 cat-54    17.8   nex-33 (((-80.88393 35.1798, -80.88694 35.18344, -80.88931 35.18516, -80.890
#>  5 cat-45     2.21  nex-70 (((-80.76158 35.2144, -80.76273 35.21363, -80.76402 35.21371, -80.765
#>  6 cat-9      0.438 nex-65 (((-80.93941 35.18507, -80.94011 35.18567, -80.93959 35.18668, -80.93
#>  7 cat-18    11.2   nex-31 (((-80.89513 35.10984, -80.89523 35.1102, -80.89546 35.10988, -80.896
#>  8 cat-35    12.1   nex-23 (((-80.86944 35.06659, -80.8701 35.06761, -80.87132 35.06971, -80.872
#>  9 cat-20    15.4   nex-NA (((-80.8725 35.00046, -80.87429 35.00082, -80.87673 35.00193, -80.877
#> 10 cat-28     1.82  nex-22 (((-80.89313 35.06234, -80.89585 35.064, -80.89817 35.06336, -80.9008
#> #  with 64 more rows
#> 
#> $waterbody
#> Simple feature collection with 74 features and 6 fields
#> geometry type:  LINESTRING
#> dimension:      XY
#> bbox:           xmin: -80.9998 ymin: 35.00016 xmax: -80.66058 ymax: 35.30738
#> geographic CRS: WGS 84
#> # A tibble: 74 x 7
#>    ID     length_km slope_percent main_id toID  realized_catchm                         geometry
#>    <chr>      <dbl>         <dbl>   <int> <chr> <chr>                            <LINESTRING []>
#>  1 wat-1      3.93        0.00518      47 wat- cat-1            (-80.94319 35.2114, -80.94509 3
#>  2 wat-2      8.10        0.00347      13 wat-5 cat-2            (-80.95713 35.16158, -80.9576 3
#>  3 wat-3     10.1         0.00610      59 wat-4 cat-3            (-80.99789 35.07792, -80.99608 
#>  4 wat-4      9.27        0.00154      13 wat-0 cat-4            (-80.93439 35.03665, -80.93383 
#>  5 wat-5      9.67        0.00115      13 wat-4 cat-5            (-80.95742 35.09442, -80.95745 
#>  6 wat-6      0.551       0.0132       38 wat- cat-6            (-80.98336 35.04575, -80.97962 
#>  7 wat-7      2.80        0.00696      21 wat-4 cat-7            (-80.95878 35.03189, -80.95307 
#>  8 wat-8      1.09        0.00239      35 wat-4 cat-8            (-80.94193 35.0314, -80.94216 3
#>  9 wat-9      0.206       0.00001      68 wat- cat-9            (-80.93832 35.18628, -80.93927 
#> 10 wat-10     2.84        0.00001      42 wat- cat-10           (-80.92234 35.10163, -80.92016 
#> #  with 64 more rows
#> 
#> $nexus
#> Simple feature collection with 29 features and 2 fields
#> geometry type:  POINT
#> dimension:      XY
#> bbox:           xmin: -80.9777 ymin: 35.01792 xmax: -80.71308 ymax: 35.28691
#> geographic CRS: WGS 84
#> # A tibble: 29 x 3
#>    ID     toID               geometry
#>    <chr>  <chr>           <POINT []>
#>  1 nex-65 cat-65 (-80.93949 35.18483)
#>  2 nex-5  cat-5  (-80.95742 35.09442)
#>  3 nex-4  cat-4  (-80.94817 35.06374)
#>  4 nex-NA cat-0  (-80.90946 35.01792)
#>  5 nex-15 cat-15  (-80.9777 35.04557)
#>  6 nex-30 cat-30 (-80.90107 35.08629)
#>  7 nex-22 cat-22 (-80.90722 35.06921)
#>  8 nex-68 cat-68  (-80.81283 35.0765)
#>  9 nex-70 cat-70 (-80.77405 35.23366)
#> 10 nex-31 cat-31 (-80.89567 35.10979)
#> #  with 19 more rows
…
