Application of hygeo with hyRefactor
…
out_path <- params$out_path
dir.create(out_path, recursive = TRUE, showWarnings = FALSE)

out_path <- write_hygeo(hygeo_list, out_path = out_path, overwrite = TRUE)
jsonlite::write_json(nhd_crosswalk, file.path(out_path, "crosswalk.json"), pretty = TRUE, auto_unbox = TRUE)

(hygeo_list_read <- read_hygeo(out_path))
#> $catchment
#> Simple feature collection with 127 features and 3 fields
#> geometry type:  MULTIPOLYGON
#> dimension:      XY
#> bbox:           xmin: -81.01073 ymin: 34.99056 xmax: -80.6473 ymax: 35.31445
#> geographic CRS: WGS 84
#> # A tibble: 127 x 4
#>    id      area_sqkm toid                                                                                   geometry
#>    <chr>       <dbl> <chr>                                                                        <MULTIPOLYGON []>
#>  1 cat-109    18.1   nex-65  (((-80.92989 35.19063, -80.93001 35.19079, -80.93117 35.19158, -80.93139 35.19233, -...
#>  2 cat-1      11.2   nex-4   (((-80.95556 35.18335, -80.95659 35.18419, -80.95781 35.18427, -80.95979 35.18685, -...
#>  3 cat-66      0.240 nex-111 (((-80.87254 35.22692, -80.87312 35.22798, -80.87141 35.22866, -80.87029 35.22977, -...
#>  4 cat-35      5.17  nex-71  (((-80.78387 35.16191, -80.78403 35.16206, -80.78464 35.16399, -80.78477 35.16583, -...
#>  5 cat-111    17.8   nex-65  (((-80.88393 35.1798, -80.88694 35.18344, -80.88931 35.18516, -80.89083 35.18653, -8...
#>  6 cat-51      1.46  nex-110 (((-80.7133 35.20837, -80.71269 35.20898, -80.71135 35.20997, -80.70895 35.20876, -8...
#>  7 cat-67      2.12  nex-66  (((-80.86955 35.23007, -80.86956 35.23076, -80.87028 35.23189, -80.8723 35.23244, -8...
#>  8 cat-101     2.72  nex-66  (((-80.89283 35.22982, -80.89274 35.23104, -80.89408 35.23299, -80.89397 35.23337, -...
#>  9 cat-81      2.21  nex-59  (((-80.76158 35.2144, -80.76273 35.21363, -80.76402 35.21371, -80.76547 35.21424, -8...
#> 10 cat-99     26.7   nex-58  (((-80.85078 35.15704, -80.85204 35.15747, -80.85226 35.15898, -80.85206 35.16238, -...
#> # ... with 117 more rows
#> 
#> $flowpath
#> Simple feature collection with 127 features and 6 fields
#> geometry type:  LINESTRING
#> dimension:      XY
#> bbox:           xmin: -80.9998 ymin: 35.00016 xmax: -80.66058 ymax: 35.30738
#> geographic CRS: WGS 84
#> # A tibble: 127 x 7
#>    id    length_km slope_percent main_id toid  realized_catchment                                                  geometry
#>    <chr>     <dbl>         <dbl>   <int> <chr> <chr>                                                       <LINESTRING []>
#>  1 fp-1      3.93        0.00518      77 fp-4  cat-1              (-80.94319 35.2114, -80.94509 35.21007, -80.94618 35.209~
#>  2 fp-2      8.10        0.00347      21 fp-9  cat-2              (-80.95713 35.16158, -80.9576 35.16167, -80.95796 35.161~
#>  3 fp-3      5.91        0.00610     105 fp-8  cat-3              (-80.99789 35.07792, -80.99608 35.07723, -80.99502 35.07~
#>  4 fp-4      6.69        0.00232      77 fp-64 cat-4              (-80.93949 35.18483, -80.93924 35.18412, -80.9391 35.183~
#>  5 fp-5      4.78        0.00154      21 fp-39 cat-5              (-80.93439 35.03665, -80.93383 35.03663, -80.93325 35.03~
#>  6 fp-6      1.87        0.00124      21 fp-5  cat-6              (-80.94281 35.04645, -80.94272 35.0459, -80.94253 35.045~
#>  7 fp-7      1.64        0.00227      21 fp-6  cat-7              (-80.94572 35.05893, -80.94521 35.05852, -80.94491 35.05~
#>  8 fp-8      0.655       0.00001      21 fp-7  cat-8              (-80.94817 35.06374, -80.9482 35.06355, -80.94856 35.062~
#>  9 fp-9      5.50        0.00107      21 fp-8  cat-9              (-80.95742 35.09442, -80.95745 35.0941, -80.95784 35.093~
#> 10 fp-10     0.355       0.0128       64 fp-25 cat-10                              (-80.98336 35.04575, -80.97962 35.04477)
#> # ... with 117 more rows
#> 
#> $nexus
#> Simple feature collection with 82 features and 2 fields
#> geometry type:  POINT
#> dimension:      XY
#> bbox:           xmin: -80.98676 ymin: 35.00016 xmax: -80.67403 ymax: 35.28691
#> geographic CRS: WGS 84
#> # A tibble: 82 x 3
#>    id     toid               geometry
#>    <chr>  <chr>           <POINT []>
#>  1 nex-4  cat-4  (-80.93949 35.18483)
#>  2 nex-9  cat-9  (-80.95742 35.09442)
#>  3 nex-8  cat-8  (-80.94817 35.06374)
#>  4 nex-64 cat-64 (-80.92069 35.13198)
#>  5 nex-39 cat-39 (-80.90946 35.01792)
#>  6 nex-5  cat-5  (-80.93439 35.03665)
#>  7 nex-6  cat-6  (-80.94281 35.04645)
#>  8 nex-7  cat-7  (-80.94572 35.05893)
#>  9 nex-25 cat-25 (-80.97962 35.04477)
#> 10 nex-27 cat-27 (-80.95307 35.03439)
#> # ... with 72 more rows
…
